%YAML 1.1
%TAG !u! tag:unity3d.com,2011:
--- !u!114 &11400000
MonoBehaviour:
  m_ObjectHideFlags: 0
  m_CorrespondingSourceObject: {fileID: 0}
  m_PrefabInstance: {fileID: 0}
  m_PrefabAsset: {fileID: 0}
  m_GameObject: {fileID: 0}
  m_Enabled: 1
  m_EditorHideFlags: 0
  m_Script: {fileID: -1893448595, guid: a040fb66244a7f54289914d98ea4ef7d, type: 3}
  m_Name: Player
  m_EditorClassIdentifier: 
  _data:
    _json: '{"graph":{"variables":{"collection":{"$content":[{"name":"speed","value":{"$content":12.0,"$type":"System.Single"},"$version":"A"},{"name":"lastMoveHorizontalAmount","value":{"$content":0.0,"$type":"System.Single"},"$version":"A"},{"name":"jumpSpeed","value":{"$content":25.0,"$type":"System.Single"},"$version":"A"},{"name":"canDoubleJump","value":{"$content":false,"$type":"System.Boolean"},"$version":"A"}],"$version":"A"},"$version":"A"},"controlInputDefinitions":[],"controlOutputDefinitions":[],"valueInputDefinitions":[],"valueOutputDefinitions":[],"title":null,"summary":null,"pan":{"x":-440.5117,"y":711.2849},"zoom":0.85,"elements":[{"coroutine":false,"defaultValues":{},"position":{"x":-43.0,"y":67.0},"guid":"07bb499a-e24a-48e4-bda5-10a5a9c3d103","$version":"A","$type":"Bolt.Update","$id":"13"},{"chainable":false,"member":{"name":"Instantiate","parameterTypes":["UnityEngine.Object","UnityEngine.Vector3","UnityEngine.Quaternion"],"targetType":"UnityEngine.Object","targetTypeName":"UnityEngine.Object","$version":"A"},"defaultValues":{"%original":{"$content":0,"$type":"UnityEngine.Object"},"%position":{"x":0.0,"y":0.0,"z":0.0,"$type":"UnityEngine.Vector3"}},"position":{"x":3360.0,"y":782.0},"guid":"380ac0d3-949f-4e17-ad9f-0f481bfbd618","$version":"A","$type":"Bolt.InvokeMember","$id":"15"},{"chainable":false,"member":{"name":"flipX","parameterTypes":null,"targetType":"UnityEngine.SpriteRenderer","targetTypeName":"UnityEngine.SpriteRenderer","$version":"A"},"defaultValues":{"target":null,"input":{"$content":false,"$type":"System.Boolean"}},"position":{"x":3488.0,"y":78.0},"guid":"28c0a6e0-84fd-4921-9605-2a06a51a0393","$version":"A","$type":"Bolt.SetMember","$id":"18"},{"numeric":true,"defaultValues":{"b":{"$content":0.0,"$type":"System.Single"}},"position":{"x":3307.0,"y":302.0},"guid":"16e3ca0e-2af9-4f5e-b1ef-3c5d6519c357","$version":"A","$type":"Bolt.Less","$id":"21"},{"coroutine":false,"defaultValues":{},"position":{"x":2120.0,"y":777.0},"guid":"03c85c20-a9cb-46c0-8348-deac01852a9c","$version":"A","$type":"Bolt.Update","$id":"23"},{"specifyFallback":false,"kind":"Object","defaultValues":{"name":{"$content":"Sprite","$type":"System.String"},"object":null},"position":{"x":3299.0,"y":167.0},"guid":"bc932912-d646-4301-b2d1-caa23ad738d2","$version":"A","$type":"Bolt.GetVariable","$id":"25"},{"chainable":false,"member":{"name":".ctor","parameterTypes":["System.Single","System.Single"],"targetType":"UnityEngine.Vector2","targetTypeName":"UnityEngine.Vector2","$version":"A"},"defaultValues":{"%x":{"$content":0.0,"$type":"System.Single"},"%y":{"$content":10.0,"$type":"System.Single"}},"position":{"x":958.0,"y":972.0},"guid":"1bb57ff2-64b2-4a57-aa83-00246599ce32","$version":"A","$type":"Bolt.InvokeMember","$id":"27"},{"kind":"Graph","defaultValues":{"name":{"$content":"canDoubleJump","$type":"System.String"}},"position":{"x":382.0,"y":699.0},"guid":"a5f45b77-0c20-40da-ac90-37da366493d4","$version":"A","$type":"Bolt.SetVariable","$id":"30"},{"member":{"name":"position","parameterTypes":null,"targetType":"UnityEngine.Transform","targetTypeName":"UnityEngine.Transform","$version":"A"},"defaultValues":{"target":null},"position":{"x":3154.0,"y":941.0},"guid":"28b235ba-d459-4c34-bfa6-5b75da4846e8","$version":"A","$type":"Bolt.GetMember","$id":"32"},{"nest":{"source":"Macro","macro":1,"embed":null},"defaultValues":{"audioClip":{"$content":2,"$type":"UnityEngine.Object"}},"position":{"x":3650.0,"y":782.0},"guid":"f5d05229-ca7b-4442-bd25-8218878577f9","$version":"A","$type":"Bolt.SuperUnit","$id":"35"},{"specifyFallback":false,"kind":"Graph","defaultValues":{"name":{"$content":"lastMoveHorizontalAmount","$type":"System.String"}},"position":{"x":3029.0,"y":250.0},"guid":"df369016-bf9b-4750-9d8b-94755c1e4704","$version":"A","$type":"Bolt.GetVariable","$id":"38"},{"outputCount":2,"defaultValues":{},"position":{"x":1303.0,"y":47.0},"guid":"f49f29b3-e3a6-4d6a-9bdf-73ab172c7671","$version":"A","$type":"Bolt.Sequence","$id":"40"},{"chainable":false,"member":{"name":"SetActive","parameterTypes":["System.Boolean"],"targetType":"UnityEngine.GameObject","targetTypeName":"UnityEngine.GameObject","$version":"A"},"defaultValues":{"target":null,"%value":{"$content":false,"$type":"System.Boolean"}},"position":{"x":2901.0,"y":775.0},"guid":"af58a422-6831-4e7c-a2a7-ed0b44cf6373","$version":"A","$type":"Bolt.InvokeMember","$id":"42"},{"type":"System.Boolean","value":{"$content":false,"$type":"System.Boolean"},"defaultValues":{},"position":{"x":236.0,"y":995.0},"guid":"a6f7452a-94ea-4e2f-aaf4-d99f738eafc4","$version":"A","$type":"Bolt.Literal","$id":"45"},{"chainable":false,"member":{"name":"GetAxisRaw","parameterTypes":["System.String"],"targetType":"UnityEngine.Input","targetTypeName":"UnityEngine.Input","$version":"A"},"defaultValues":{"%axisName":{"$content":"Horizontal","$type":"System.String"}},"position":{"x":1147.0,"y":186.0},"guid":"4a2f604e-3a65-4bb2-9bd4-90576b73d636","$version":"A","$type":"Bolt.InvokeMember","$id":"47"},{"member":{"name":"y","parameterTypes":null,"targetType":"UnityEngine.Vector2","targetTypeName":"UnityEngine.Vector2","$version":"A"},"defaultValues":{"target":{"x":0.0,"y":0.0,"$type":"UnityEngine.Vector2"}},"position":{"x":2358.0,"y":918.0},"guid":"bc086199-0cb6-48a8-9482-23197848cfaa","$version":"A","$type":"Bolt.GetMember","$id":"50"},{"nest":{"source":"Embed","macro":null,"embed":{"variables":{"collection":{"$content":[],"$version":"A"},"$version":"A"},"controlInputDefinitions":[{"key":"Enter","label":null,"summary":null,"hideLabel":false}],"controlOutputDefinitions":[{"key":"Exit","label":null,"summary":null,"hideLabel":false}],"valueInputDefinitions":[],"valueOutputDefinitions":[{"_type":"System.Boolean","key":"isGrounded","label":null,"summary":null,"hideLabel":false}],"title":"isGrounded","summary":null,"pan":{"x":-53.24312,"y":-50.8304},"zoom":0.8999999,"elements":[{"defaultValues":{},"position":{"x":-761.0,"y":-214.0},"guid":"045e7747-65f2-4edb-a287-54c6a8898705","$version":"A","$type":"Bolt.GraphInput","$id":"66"},{"defaultValues":{},"position":{"x":384.0,"y":-25.0},"guid":"f25a82dc-5c0d-41e7-9b8d-994b7583cd05","$version":"A","$type":"Bolt.Null","$id":"68"},{"member":{"name":"offset","parameterTypes":null,"targetType":"UnityEngine.BoxCollider2D","targetTypeName":"UnityEngine.BoxCollider2D","$version":"A"},"defaultValues":{"target":null},"position":{"x":-238.0,"y":61.0},"guid":"fc3fb83f-13d0-4d69-b2f9-ed770e4b89d1","$version":"A","$type":"Bolt.GetMember","$id":"70"},{"defaultValues":{},"position":{"x":756.0,"y":-214.0},"guid":"1fc281fe-d6a4-4840-b2de-21ffa456de1c","$version":"A","$type":"Bolt.GraphOutput","$id":"73"},{"chainable":false,"member":{"name":".ctor","parameterTypes":["System.Single","System.Single"],"targetType":"UnityEngine.Vector2","targetTypeName":"UnityEngine.Vector2","$version":"A"},"defaultValues":{"%x":{"$content":0.0,"$type":"System.Single"},"%y":{"$content":0.0,"$type":"System.Single"}},"position":{"x":-236.0,"y":-108.0},"guid":"b2c28974-3856-48c8-9566-b7ce46a630c8","$version":"A","$type":"Bolt.InvokeMember","$id":"75"},{"member":{"name":"size","parameterTypes":null,"targetType":"UnityEngine.BoxCollider2D","targetTypeName":"UnityEngine.BoxCollider2D","$version":"A"},"defaultValues":{"target":null},"position":{"x":-48.0,"y":24.0},"guid":"b185b779-2788-4a62-8fb0-6cb152ece912","$version":"A","$type":"Bolt.GetMember","$id":"78"},{"chainable":false,"member":{"name":"BoxCast","parameterTypes":["UnityEngine.Vector2","UnityEngine.Vector2","System.Single","UnityEngine.Vector2","System.Single","System.Int32"],"targetType":"UnityEngine.Physics2D","targetTypeName":"UnityEngine.Physics2D","$version":"A"},"defaultValues":{"%origin":{"x":0.0,"y":0.0,"$type":"UnityEngine.Vector2"},"%size":{"x":0.0,"y":0.0,"$type":"UnityEngine.Vector2"},"%angle":{"$content":0.0,"$type":"System.Single"},"%direction":{"x":0.0,"y":-1.0,"$type":"UnityEngine.Vector2"},"%distance":{"$content":0.1,"$type":"System.Single"},"%layerMask":{"$content":0,"$type":"System.Int32"}},"position":{"x":161.0,"y":-214.0},"guid":"032805c0-ae38-42bf-a3c5-28169a654858","$version":"A","$type":"Bolt.InvokeMember","$id":"81"},{"member":{"name":"collider","parameterTypes":null,"targetType":"UnityEngine.RaycastHit2D","targetTypeName":"UnityEngine.RaycastHit2D","$version":"A"},"defaultValues":{},"position":{"x":358.0,"y":-130.0},"guid":"3fc18cbc-599a-4bd4-8024-f46e19838d5e","$version":"A","$type":"Bolt.GetMember","$id":"84"},{"defaultValues":{},"position":{"x":-48.0,"y":-109.0},"guid":"86e502eb-f338-46a6-87c3-5fe094a13bf9","$version":"A","$type":"Bolt.GenericAdd","$id":"87"},{"member":{"name":"x","parameterTypes":null,"targetType":"UnityEngine.Vector3","targetTypeName":"UnityEngine.Vector3","$version":"A"},"defaultValues":{"target":{"x":0.0,"y":0.0,"z":0.0,"$type":"UnityEngine.Vector3"}},"position":{"x":-412.0,"y":-107.0},"guid":"5a00d063-825a-45fc-ba53-73e5f4affe42","$version":"A","$type":"Bolt.GetMember","$id":"89"},{"member":{"name":"y","parameterTypes":null,"targetType":"UnityEngine.Vector3","targetTypeName":"UnityEngine.Vector3","$version":"A"},"defaultValues":{"target":{"x":0.0,"y":0.0,"z":0.0,"$type":"UnityEngine.Vector3"}},"position":{"x":-408.0,"y":-16.0},"guid":"4225bff2-23eb-496f-8a27-2efe8c50191a","$version":"A","$type":"Bolt.GetMember","$id":"92"},{"numeric":false,"defaultValues":{},"position":{"x":542.0,"y":-139.0},"guid":"dd6081b1-1d68-4185-b8cf-50a0266730f9","$version":"A","$type":"Bolt.NotEqual","$id":"95"},{"member":{"name":"position","parameterTypes":null,"targetType":"UnityEngine.Transform","targetTypeName":"UnityEngine.Transform","$version":"A"},"defaultValues":{"target":null},"position":{"x":-624.0,"y":-67.0},"guid":"87ecebba-4f3e-4187-a708-d914c42264c2","$version":"A","$type":"Bolt.GetMember","$id":"97"},{"type":"UnityEngine.LayerMask","value":{"value":4352,"$type":"UnityEngine.LayerMask"},"defaultValues":{},"position":{"x":-9.0,"y":133.0},"guid":"0dda3462-eb2c-4aba-b2ce-785824ac1856","$version":"A","$type":"Bolt.Literal","$id":"100"},{"sourceUnit":{"$ref":"66"},"sourceKey":"Enter","destinationUnit":{"$ref":"81"},"destinationKey":"enter","guid":"c6e72472-3468-4d0b-b6e6-821aa25c433d","$type":"Bolt.ControlConnection"},{"sourceUnit":{"$ref":"81"},"sourceKey":"exit","destinationUnit":{"$ref":"73"},"destinationKey":"Exit","guid":"c71527f6-e81b-4e5d-9a18-aa31614db373","$type":"Bolt.ControlConnection"},{"sourceUnit":{"$ref":"100"},"sourceKey":"output","destinationUnit":{"$ref":"81"},"destinationKey":"%layerMask","guid":"5a86bbbd-aa34-4dd8-9b2e-fc64d0aa890e","$type":"Bolt.ValueConnection"},{"sourceUnit":{"$ref":"70"},"sourceKey":"value","destinationUnit":{"$ref":"87"},"destinationKey":"b","guid":"925d460b-0cfa-4112-b3d7-ce844e2443e9","$type":"Bolt.ValueConnection"},{"sourceUnit":{"$ref":"89"},"sourceKey":"value","destinationUnit":{"$ref":"75"},"destinationKey":"%x","guid":"864f3a7d-80c5-4ab1-ae7e-9abfae38c007","$type":"Bolt.ValueConnection"},{"sourceUnit":{"$ref":"97"},"sourceKey":"value","destinationUnit":{"$ref":"89"},"destinationKey":"target","guid":"64382462-948b-40dc-95d3-5458eb23d14e","$type":"Bolt.ValueConnection"},{"sourceUnit":{"$ref":"84"},"sourceKey":"value","destinationUnit":{"$ref":"95"},"destinationKey":"a","guid":"5874c47b-4a7d-47b7-b17b-15d47077701e","$type":"Bolt.ValueConnection"},{"sourceUnit":{"$ref":"75"},"sourceKey":"result","destinationUnit":{"$ref":"87"},"destinationKey":"a","guid":"616e212f-5e12-4b4b-b9f9-33bdb0a31b71","$type":"Bolt.ValueConnection"},{"sourceUnit":{"$ref":"87"},"sourceKey":"sum","destinationUnit":{"$ref":"81"},"destinationKey":"%origin","guid":"cce6c62b-8183-4bb5-92bd-78beec422a35","$type":"Bolt.ValueConnection"},{"sourceUnit":{"$ref":"78"},"sourceKey":"value","destinationUnit":{"$ref":"81"},"destinationKey":"%size","guid":"15cbcfa3-da0f-48be-aed4-86069ed35ebc","$type":"Bolt.ValueConnection"},{"sourceUnit":{"$ref":"68"},"sourceKey":"null","destinationUnit":{"$ref":"95"},"destinationKey":"b","guid":"3442c013-3fdc-47b3-b092-e620a9ce0bca","$type":"Bolt.ValueConnection"},{"sourceUnit":{"$ref":"81"},"sourceKey":"result","destinationUnit":{"$ref":"84"},"destinationKey":"target","guid":"bd7c1009-cf9c-429d-b3a7-7b0e3e65e053","$type":"Bolt.ValueConnection"},{"sourceUnit":{"$ref":"97"},"sourceKey":"value","destinationUnit":{"$ref":"92"},"destinationKey":"target","guid":"2b151f4d-a2ef-4435-b2e6-e24238322181","$type":"Bolt.ValueConnection"},{"sourceUnit":{"$ref":"92"},"sourceKey":"value","destinationUnit":{"$ref":"75"},"destinationKey":"%y","guid":"aae0dd8c-abb8-4a8e-aa7c-ead8228fd9ec","$type":"Bolt.ValueConnection"},{"sourceUnit":{"$ref":"95"},"sourceKey":"notEqual","destinationUnit":{"$ref":"73"},"destinationKey":"isGrounded","guid":"fd133719-439c-4f5a-aee5-ef62b456d4ad","$type":"Bolt.ValueConnection"}],"$version":"A"}},"defaultValues":{},"position":{"x":-371.0,"y":739.0},"guid":"da7cef00-3010-4377-97a5-26da18771914","$version":"A","$type":"Bolt.SuperUnit","$id":"53"},{"defaultValues":{},"position":{"x":96.0,"y":846.0},"guid":"09638253-99fa-4deb-90ac-2d452d59655c","$version":"A","$type":"Bolt.Branch","$id":"118"},{"kind":"Graph","defaultValues":{"name":{"$content":"canDoubleJump","$type":"System.String"}},"position":{"x":367.0,"y":910.0},"guid":"c3c290ee-9191-423c-a3ef-092d5ba6a528","$version":"A","$type":"Bolt.SetVariable","$id":"120"},{"chainable":false,"member":{"name":"velocity","parameterTypes":null,"targetType":"UnityEngine.Rigidbody2D","targetTypeName":"UnityEngine.Rigidbody2D","$version":"A"},"defaultValues":{"target":null,"input":{"x":0.0,"y":0.0,"$type":"UnityEngine.Vector2"}},"position":{"x":732.0,"y":69.0},"guid":"b27e60c1-2b74-4ca6-ae00-a1911b29869f","$version":"A","$type":"Bolt.SetMember","$id":"122"},{"coroutine":false,"defaultValues":{"buttonName":{"$content":"Jump","$type":"System.String"},"action":{"$content":"Down","$type":"Ludiq.PressState"}},"position":{"x":-644.0,"y":738.0},"guid":"62b82f4a-a13a-4df3-9498-ceb0a88b4d9f","$version":"A","$type":"Bolt.OnButtonInput","$id":"125"},{"member":{"name":"identity","parameterTypes":null,"targetType":"UnityEngine.Quaternion","targetTypeName":"UnityEngine.Quaternion","$version":"A"},"defaultValues":{},"position":{"x":3154.0,"y":1032.0},"guid":"db954dd3-9395-44a1-826e-d942a7123d83","$version":"A","$type":"Bolt.GetMember","$id":"127"},{"type":"System.Boolean","value":{"$content":true,"$type":"System.Boolean"},"defaultValues":{},"position":{"x":261.0,"y":786.0},"guid":"d8fb4fd2-1702-4bab-a97a-3d9139500199","$version":"A","$type":"Bolt.Literal","$id":"130"},{"specifyFallback":false,"kind":"Graph","defaultValues":{"name":{"$content":"canDoubleJump","$type":"System.String"}},"position":{"x":-217.0,"y":938.0},"guid":"9892405a-8977-48c1-85b2-8b5f06a82bd7","$version":"A","$type":"Bolt.GetVariable","$id":"132"},{"nest":{"source":"Macro","macro":3,"embed":null},"defaultValues":{"audioClip":{"$content":4,"$type":"UnityEngine.Object"}},"position":{"x":1321.0,"y":694.0},"guid":"e917e05f-494d-4c87-b0c5-df0b6e89333c","$version":"A","$type":"Bolt.SuperUnit","$id":"134"},{"defaultValues":{},"position":{"x":2476.0,"y":184.0},"guid":"ee3487b9-ad25-4863-93a3-4842a2c19b4c","$version":"A","$type":"Bolt.Negate","$id":"137"},{"defaultValues":{},"position":{"x":-139.0,"y":733.0},"guid":"326a5d45-0af2-47f0-8506-f3769ed4d4e4","$version":"A","$type":"Bolt.Branch","$id":"139"},{"defaultValues":{},"position":{"x":2705.0,"y":778.0},"guid":"9f1cb504-f430-4c78-bb36-47c3337a6151","$version":"A","$type":"Bolt.Branch","$id":"141"},{"member":{"name":"x","parameterTypes":null,"targetType":"UnityEngine.Vector2","targetTypeName":"UnityEngine.Vector2","$version":"A"},"defaultValues":{"target":{"x":0.0,"y":0.0,"$type":"UnityEngine.Vector2"}},"position":{"x":825.0,"y":972.0},"guid":"ac5fcd13-97af-4e67-9340-e9d1202dddd2","$version":"A","$type":"Bolt.GetMember","$id":"143"},{"kind":"Graph","defaultValues":{"name":{"$content":"lastMoveHorizontalAmount","$type":"System.String"}},"position":{"x":1868.0,"y":285.0},"guid":"510ebd8b-218e-42ed-83f3-3b7a65b3e177","$version":"A","$type":"Bolt.SetVariable","$id":"146"},{"chainable":false,"member":{"name":"SetBool","parameterTypes":["System.String","System.Boolean"],"targetType":"UnityEngine.Animator","targetTypeName":"UnityEngine.Animator","$version":"A"},"defaultValues":{"target":null,"%name":{"$content":"isWalking","$type":"System.String"},"%value":{"$content":false,"$type":"System.Boolean"}},"position":{"x":1736.0,"y":60.0},"guid":"d6d7ed71-84bb-4a24-81e5-e93991d0f420","$version":"A","$type":"Bolt.InvokeMember","$id":"148"},{"chainable":false,"member":{"name":"SetBool","parameterTypes":["System.String","System.Boolean"],"targetType":"UnityEngine.Animator","targetTypeName":"UnityEngine.Animator","$version":"A"},"defaultValues":{"target":null,"%name":{"$content":"isJumping","$type":"System.String"},"%value":{"$content":false,"$type":"System.Boolean"}},"position":{"x":2652.0,"y":77.0},"guid":"a344a840-74d5-41e2-b0ec-705d252405b5","$version":"A","$type":"Bolt.InvokeMember","$id":"151"},{"specifyFallback":false,"kind":"Graph","defaultValues":{"name":{"$content":"jumpSpeed","$type":"System.String"}},"position":{"x":762.0,"y":1068.0},"guid":"17a9e6d3-35a8-495a-8e54-d9514e9ebeb1","$version":"A","$type":"Bolt.GetVariable","$id":"154"},{"nest":{"source":"Embed","macro":null,"embed":{"variables":{"collection":{"$content":[],"$version":"A"},"$version":"A"},"controlInputDefinitions":[{"key":"Enter","label":null,"summary":null,"hideLabel":false}],"controlOutputDefinitions":[{"key":"Exit","label":null,"summary":null,"hideLabel":false}],"valueInputDefinitions":[],"valueOutputDefinitions":[{"_type":"System.Boolean","key":"isGrounded","label":null,"summary":null,"hideLabel":false}],"title":"isGrounded","summary":null,"pan":{"x":-404.9153,"y":103.4875},"zoom":0.8000001,"elements":[{"defaultValues":{},"position":{"x":-761.0,"y":-214.0},"guid":"045e7747-65f2-4edb-a287-54c6a8898705","$version":"A","$type":"Bolt.GraphInput","$id":"169"},{"type":"UnityEngine.LayerMask","value":{"value":4352,"$type":"UnityEngine.LayerMask"},"defaultValues":{},"position":{"x":-9.0,"y":133.0},"guid":"0dda3462-eb2c-4aba-b2ce-785824ac1856","$version":"A","$type":"Bolt.Literal","$id":"171"},{"member":{"name":"position","parameterTypes":null,"targetType":"UnityEngine.Transform","targetTypeName":"UnityEngine.Transform","$version":"A"},"defaultValues":{"target":null},"position":{"x":-624.0,"y":-67.0},"guid":"87ecebba-4f3e-4187-a708-d914c42264c2","$version":"A","$type":"Bolt.GetMember","$id":"173"},{"numeric":false,"defaultValues":{},"position":{"x":542.0,"y":-139.0},"guid":"dd6081b1-1d68-4185-b8cf-50a0266730f9","$version":"A","$type":"Bolt.NotEqual","$id":"176"},{"member":{"name":"y","parameterTypes":null,"targetType":"UnityEngine.Vector3","targetTypeName":"UnityEngine.Vector3","$version":"A"},"defaultValues":{"target":{"x":0.0,"y":0.0,"z":0.0,"$type":"UnityEngine.Vector3"}},"position":{"x":-408.0,"y":-16.0},"guid":"4225bff2-23eb-496f-8a27-2efe8c50191a","$version":"A","$type":"Bolt.GetMember","$id":"178"},{"defaultValues":{},"position":{"x":-48.0,"y":-109.0},"guid":"86e502eb-f338-46a6-87c3-5fe094a13bf9","$version":"A","$type":"Bolt.GenericAdd","$id":"181"},{"member":{"name":"collider","parameterTypes":null,"targetType":"UnityEngine.RaycastHit2D","targetTypeName":"UnityEngine.RaycastHit2D","$version":"A"},"defaultValues":{},"position":{"x":358.0,"y":-130.0},"guid":"3fc18cbc-599a-4bd4-8024-f46e19838d5e","$version":"A","$type":"Bolt.GetMember","$id":"183"},{"member":{"name":"x","parameterTypes":null,"targetType":"UnityEngine.Vector3","targetTypeName":"UnityEngine.Vector3","$version":"A"},"defaultValues":{"target":{"x":0.0,"y":0.0,"z":0.0,"$type":"UnityEngine.Vector3"}},"position":{"x":-412.0,"y":-107.0},"guid":"5a00d063-825a-45fc-ba53-73e5f4affe42","$version":"A","$type":"Bolt.GetMember","$id":"186"},{"member":{"name":"size","parameterTypes":null,"targetType":"UnityEngine.BoxCollider2D","targetTypeName":"UnityEngine.BoxCollider2D","$version":"A"},"defaultValues":{"target":null},"position":{"x":-48.0,"y":24.0},"guid":"b185b779-2788-4a62-8fb0-6cb152ece912","$version":"A","$type":"Bolt.GetMember","$id":"189"},{"chainable":false,"member":{"name":".ctor","parameterTypes":["System.Single","System.Single"],"targetType":"UnityEngine.Vector2","targetTypeName":"UnityEngine.Vector2","$version":"A"},"defaultValues":{"%x":{"$content":0.0,"$type":"System.Single"},"%y":{"$content":0.0,"$type":"System.Single"}},"position":{"x":-236.0,"y":-108.0},"guid":"b2c28974-3856-48c8-9566-b7ce46a630c8","$version":"A","$type":"Bolt.InvokeMember","$id":"192"},{"defaultValues":{},"position":{"x":756.0,"y":-214.0},"guid":"1fc281fe-d6a4-4840-b2de-21ffa456de1c","$version":"A","$type":"Bolt.GraphOutput","$id":"195"},{"member":{"name":"offset","parameterTypes":null,"targetType":"UnityEngine.BoxCollider2D","targetTypeName":"UnityEngine.BoxCollider2D","$version":"A"},"defaultValues":{"target":null},"position":{"x":-238.0,"y":61.0},"guid":"fc3fb83f-13d0-4d69-b2f9-ed770e4b89d1","$version":"A","$type":"Bolt.GetMember","$id":"197"},{"defaultValues":{},"position":{"x":384.0,"y":-25.0},"guid":"f25a82dc-5c0d-41e7-9b8d-994b7583cd05","$version":"A","$type":"Bolt.Null","$id":"200"},{"chainable":false,"member":{"name":"BoxCast","parameterTypes":["UnityEngine.Vector2","UnityEngine.Vector2","System.Single","UnityEngine.Vector2","System.Single","System.Int32"],"targetType":"UnityEngine.Physics2D","targetTypeName":"UnityEngine.Physics2D","$version":"A"},"defaultValues":{"%origin":{"x":0.0,"y":0.0,"$type":"UnityEngine.Vector2"},"%size":{"x":0.0,"y":0.0,"$type":"UnityEngine.Vector2"},"%angle":{"$content":0.0,"$type":"System.Single"},"%direction":{"x":0.0,"y":-1.0,"$type":"UnityEngine.Vector2"},"%distance":{"$content":0.1,"$type":"System.Single"},"%layerMask":{"$content":0,"$type":"System.Int32"}},"position":{"x":161.0,"y":-214.0},"guid":"032805c0-ae38-42bf-a3c5-28169a654858","$version":"A","$type":"Bolt.InvokeMember","$id":"202"},{"sourceUnit":{"$ref":"169"},"sourceKey":"Enter","destinationUnit":{"$ref":"202"},"destinationKey":"enter","guid":"c6e72472-3468-4d0b-b6e6-821aa25c433d","$type":"Bolt.ControlConnection"},{"sourceUnit":{"$ref":"202"},"sourceKey":"exit","destinationUnit":{"$ref":"195"},"destinationKey":"Exit","guid":"c71527f6-e81b-4e5d-9a18-aa31614db373","$type":"Bolt.ControlConnection"},{"sourceUnit":{"$ref":"181"},"sourceKey":"sum","destinationUnit":{"$ref":"202"},"destinationKey":"%origin","guid":"cce6c62b-8183-4bb5-92bd-78beec422a35","$type":"Bolt.ValueConnection"},{"sourceUnit":{"$ref":"173"},"sourceKey":"value","destinationUnit":{"$ref":"178"},"destinationKey":"target","guid":"2b151f4d-a2ef-4435-b2e6-e24238322181","$type":"Bolt.ValueConnection"},{"sourceUnit":{"$ref":"202"},"sourceKey":"result","destinationUnit":{"$ref":"183"},"destinationKey":"target","guid":"bd7c1009-cf9c-429d-b3a7-7b0e3e65e053","$type":"Bolt.ValueConnection"},{"sourceUnit":{"$ref":"200"},"sourceKey":"null","destinationUnit":{"$ref":"176"},"destinationKey":"b","guid":"3442c013-3fdc-47b3-b092-e620a9ce0bca","$type":"Bolt.ValueConnection"},{"sourceUnit":{"$ref":"189"},"sourceKey":"value","destinationUnit":{"$ref":"202"},"destinationKey":"%size","guid":"15cbcfa3-da0f-48be-aed4-86069ed35ebc","$type":"Bolt.ValueConnection"},{"sourceUnit":{"$ref":"192"},"sourceKey":"result","destinationUnit":{"$ref":"181"},"destinationKey":"a","guid":"616e212f-5e12-4b4b-b9f9-33bdb0a31b71","$type":"Bolt.ValueConnection"},{"sourceUnit":{"$ref":"173"},"sourceKey":"value","destinationUnit":{"$ref":"186"},"destinationKey":"target","guid":"64382462-948b-40dc-95d3-5458eb23d14e","$type":"Bolt.ValueConnection"},{"sourceUnit":{"$ref":"186"},"sourceKey":"value","destinationUnit":{"$ref":"192"},"destinationKey":"%x","guid":"864f3a7d-80c5-4ab1-ae7e-9abfae38c007","$type":"Bolt.ValueConnection"},{"sourceUnit":{"$ref":"197"},"sourceKey":"value","destinationUnit":{"$ref":"181"},"destinationKey":"b","guid":"925d460b-0cfa-4112-b3d7-ce844e2443e9","$type":"Bolt.ValueConnection"},{"sourceUnit":{"$ref":"171"},"sourceKey":"output","destinationUnit":{"$ref":"202"},"destinationKey":"%layerMask","guid":"5a86bbbd-aa34-4dd8-9b2e-fc64d0aa890e","$type":"Bolt.ValueConnection"},{"sourceUnit":{"$ref":"178"},"sourceKey":"value","destinationUnit":{"$ref":"192"},"destinationKey":"%y","guid":"aae0dd8c-abb8-4a8e-aa7c-ead8228fd9ec","$type":"Bolt.ValueConnection"},{"sourceUnit":{"$ref":"183"},"sourceKey":"value","destinationUnit":{"$ref":"176"},"destinationKey":"a","guid":"5874c47b-4a7d-47b7-b17b-15d47077701e","$type":"Bolt.ValueConnection"},{"sourceUnit":{"$ref":"176"},"sourceKey":"notEqual","destinationUnit":{"$ref":"195"},"destinationKey":"isGrounded","guid":"fd133719-439c-4f5a-aee5-ef62b456d4ad","$type":"Bolt.ValueConnection"}],"$version":"A"}},"defaultValues":{},"position":{"x":2231.0,"y":76.0},"guid":"4c7fa4a1-6b12-4de5-8536-e9ba5e901d46","$version":"A","$type":"Bolt.SuperUnit","$id":"156"},{"type":"System.Single","value":{"$content":0.0,"$type":"System.Single"},"defaultValues":{},"position":{"x":1216.0,"y":395.0},"guid":"b98d5f39-f2e5-4dc3-80e2-ce393c5fa8b3","$version":"A","$type":"Bolt.Literal","$id":"221"},{"numeric":false,"defaultValues":{},"position":{"x":1370.0,"y":313.0},"guid":"5bf22de8-08f6-4ee5-a17c-15591e5ce26a","$version":"A","$type":"Bolt.NotEqual","$id":"223"},{"member":{"name":"velocity","parameterTypes":null,"targetType":"UnityEngine.Rigidbody2D","targetTypeName":"UnityEngine.Rigidbody2D","$version":"A"},"defaultValues":{"target":null},"position":{"x":192.0,"y":434.0},"guid":"942f0e2d-af30-4338-9ef7-b06482d0e18c","$version":"A","$type":"Bolt.GetMember","$id":"225"},{"numeric":true,"defaultValues":{"b":{"$content":-100.0,"$type":"System.Single"}},"position":{"x":2538.0,"y":920.0},"guid":"6474eb36-8f3a-4abd-8938-15f2d84248fc","$version":"A","$type":"Bolt.Less","$id":"228"},{"argumentCount":0,"defaultValues":{"name":{"$content":"OnPlayerDied","$type":"System.String"},"target":null},"position":{"x":3152.0,"y":758.0},"guid":"bfd7bc91-4a22-4807-a186-9974eb5239f1","$version":"A","$type":"Bolt.TriggerCustomEvent","$id":"230"},{"chainable":false,"member":{"name":"velocity","parameterTypes":null,"targetType":"UnityEngine.Rigidbody2D","targetTypeName":"UnityEngine.Rigidbody2D","$version":"A"},"defaultValues":{"target":null,"input":{"x":0.0,"y":0.0,"$type":"UnityEngine.Vector2"}},"position":{"x":1093.0,"y":694.0},"guid":"724d2ba1-ed2a-412a-9959-7f0a28acdea5","$version":"A","$type":"Bolt.SetMember","$id":"232"},{"chainable":false,"member":{"name":"GetAxisRaw","parameterTypes":["System.String"],"targetType":"UnityEngine.Input","targetTypeName":"UnityEngine.Input","$version":"A"},"defaultValues":{"%axisName":{"$content":"Horizontal","$type":"System.String"}},"position":{"x":171.0,"y":176.0},"guid":"dd50f358-994d-413a-b94b-36a4a7bb43be","$version":"A","$type":"Bolt.InvokeMember","$id":"235"},{"member":{"name":"velocity","parameterTypes":null,"targetType":"UnityEngine.Rigidbody2D","targetTypeName":"UnityEngine.Rigidbody2D","$version":"A"},"defaultValues":{"target":null},"position":{"x":650.0,"y":970.0},"guid":"3cef0d71-6bc4-4ea8-87ae-7338feaa18d4","$version":"A","$type":"Bolt.GetMember","$id":"238"},{"member":{"name":"velocity","parameterTypes":null,"targetType":"UnityEngine.Rigidbody2D","targetTypeName":"UnityEngine.Rigidbody2D","$version":"A"},"defaultValues":{"target":null},"position":{"x":2159.0,"y":918.0},"guid":"00800282-c92d-4d2a-a6bd-478a46a31554","$version":"A","$type":"Bolt.GetMember","$id":"241"},{"specifyFallback":false,"kind":"Graph","defaultValues":{"name":{"$content":"speed","$type":"System.String"}},"position":{"x":195.0,"y":324.0},"guid":"a127abcc-9f2b-424b-aec8-bae6f311e103","$version":"A","$type":"Bolt.GetVariable","$id":"244"},{"chainable":false,"member":{"name":"GetAxisRaw","parameterTypes":["System.String"],"targetType":"UnityEngine.Input","targetTypeName":"UnityEngine.Input","$version":"A"},"defaultValues":{"%axisName":{"$content":"Horizontal","$type":"System.String"}},"position":{"x":1608.0,"y":424.0},"guid":"2b772f76-7473-4b39-890f-115551920ea0","$version":"A","$type":"Bolt.InvokeMember","$id":"246"},{"defaultValues":{},"position":{"x":387.0,"y":314.0},"guid":"4787db32-7454-4021-811e-b8208cf8b163","$version":"A","$type":"Bolt.GenericMultiply","$id":"249"},{"defaultValues":{},"position":{"x":1687.0,"y":280.0},"guid":"69d4e6db-e1f3-4b20-98ef-2bf61012e016","$version":"A","$type":"Bolt.Branch","$id":"251"},{"chainable":false,"member":{"name":".ctor","parameterTypes":["System.Single","System.Single"],"targetType":"UnityEngine.Vector2","targetTypeName":"UnityEngine.Vector2","$version":"A"},"defaultValues":{"%x":{"$content":0.0,"$type":"System.Single"},"%y":{"$content":0.0,"$type":"System.Single"}},"position":{"x":562.0,"y":191.0},"guid":"5b12a285-e3ad-490f-8d66-b33a9b457c3d","$version":"A","$type":"Bolt.InvokeMember","$id":"253"},{"member":{"name":"y","parameterTypes":null,"targetType":"UnityEngine.Vector2","targetTypeName":"UnityEngine.Vector2","$version":"A"},"defaultValues":{"target":{"x":0.0,"y":0.0,"$type":"UnityEngine.Vector2"}},"position":{"x":390.0,"y":440.0},"guid":"e180fe50-a080-49fa-ae12-69f7d4b2d5b3","$version":"A","$type":"Bolt.GetMember","$id":"256"},{"sourceUnit":{"$ref":"120"},"sourceKey":"assigned","destinationUnit":{"$ref":"232"},"destinationKey":"assign","guid":"a146a414-a353-43aa-894f-a52421e55f75","$type":"Bolt.ControlConnection"},{"sourceUnit":{"$ref":"118"},"sourceKey":"ifTrue","destinationUnit":{"$ref":"120"},"destinationKey":"assign","guid":"08212d0a-a1eb-4592-a9ce-71ae349b3c44","$type":"Bolt.ControlConnection"},{"sourceUnit":{"$ref":"40"},"sourceKey":"1","destinationUnit":{"$ref":"251"},"destinationKey":"enter","guid":"4a0fa6cf-6358-43d3-8ee0-019172ea53e1","$type":"Bolt.ControlConnection"},{"sourceUnit":{"$ref":"40"},"sourceKey":"0","destinationUnit":{"$ref":"148"},"destinationKey":"enter","guid":"a67de4ab-6f14-45a5-b47f-c88b58cb97db","$type":"Bolt.ControlConnection"},{"sourceUnit":{"$ref":"42"},"sourceKey":"exit","destinationUnit":{"$ref":"230"},"destinationKey":"enter","guid":"cf4905d3-b781-468b-9663-954728831f19","$type":"Bolt.ControlConnection"},{"sourceUnit":{"$ref":"125"},"sourceKey":"trigger","destinationUnit":{"$ref":"53"},"destinationKey":"Enter","guid":"9c1b8f49-71e6-49b8-a648-afff317a0737","$type":"Bolt.ControlConnection"},{"sourceUnit":{"$ref":"53"},"sourceKey":"Exit","destinationUnit":{"$ref":"139"},"destinationKey":"enter","guid":"6029c27c-cd43-4262-bf42-ae6368e04a63","$type":"Bolt.ControlConnection"},{"sourceUnit":{"$ref":"156"},"sourceKey":"Exit","destinationUnit":{"$ref":"151"},"destinationKey":"enter","guid":"74328647-c649-4f2d-8694-8368bf641e67","$type":"Bolt.ControlConnection"},{"sourceUnit":{"$ref":"141"},"sourceKey":"ifTrue","destinationUnit":{"$ref":"42"},"destinationKey":"enter","guid":"0e9ee9fb-bce6-4936-a49a-08f10c9d657f","$type":"Bolt.ControlConnection"},{"sourceUnit":{"$ref":"148"},"sourceKey":"exit","destinationUnit":{"$ref":"156"},"destinationKey":"Enter","guid":"2f640c36-b95b-4e1a-bb33-6799cf554ddb","$type":"Bolt.ControlConnection"},{"sourceUnit":{"$ref":"15"},"sourceKey":"exit","destinationUnit":{"$ref":"35"},"destinationKey":"enter","guid":"fea3da52-900b-4653-af02-c798aec773c0","$type":"Bolt.ControlConnection"},{"sourceUnit":{"$ref":"230"},"sourceKey":"exit","destinationUnit":{"$ref":"15"},"destinationKey":"enter","guid":"b464f37f-76f0-4c4e-ac33-9988a4d5ab3c","$type":"Bolt.ControlConnection"},{"sourceUnit":{"$ref":"151"},"sourceKey":"exit","destinationUnit":{"$ref":"18"},"destinationKey":"assign","guid":"0cb2ddde-835d-4d3b-94e2-f0a748b8d7d3","$type":"Bolt.ControlConnection"},{"sourceUnit":{"$ref":"139"},"sourceKey":"ifFalse","destinationUnit":{"$ref":"118"},"destinationKey":"enter","guid":"0db8d5d2-0cbe-47eb-ba43-1e478b6540aa","$type":"Bolt.ControlConnection"},{"sourceUnit":{"$ref":"251"},"sourceKey":"ifTrue","destinationUnit":{"$ref":"146"},"destinationKey":"assign","guid":"80d98fc6-b4ba-4935-a8d1-5c5da9d1ce0e","$type":"Bolt.ControlConnection"},{"sourceUnit":{"$ref":"139"},"sourceKey":"ifTrue","destinationUnit":{"$ref":"30"},"destinationKey":"assign","guid":"869c5e8e-710e-4623-8c7e-5404c37456a1","$type":"Bolt.ControlConnection"},{"sourceUnit":{"$ref":"30"},"sourceKey":"assigned","destinationUnit":{"$ref":"232"},"destinationKey":"assign","guid":"3e0c4bd0-c461-481b-b629-0e859781fc66","$type":"Bolt.ControlConnection"},{"sourceUnit":{"$ref":"122"},"sourceKey":"assigned","destinationUnit":{"$ref":"40"},"destinationKey":"enter","guid":"0179bdca-ce73-4c0d-aa71-83fc0060c3f1","$type":"Bolt.ControlConnection"},{"sourceUnit":{"$ref":"23"},"sourceKey":"trigger","destinationUnit":{"$ref":"141"},"destinationKey":"enter","guid":"8e451e6f-6029-4d2c-a62f-eb0096b281f8","$type":"Bolt.ControlConnection"},{"sourceUnit":{"$ref":"232"},"sourceKey":"assigned","destinationUnit":{"$ref":"134"},"destinationKey":"enter","guid":"731eb981-5ee0-4e78-965c-76e270678c13","$type":"Bolt.ControlConnection"},{"sourceUnit":{"$ref":"13"},"sourceKey":"trigger","destinationUnit":{"$ref":"122"},"destinationKey":"assign","guid":"a7afbc79-746e-4eb6-a0c9-a482162d55e5","$type":"Bolt.ControlConnection"},{"sourceUnit":{"$ref":"137"},"sourceKey":"output","destinationUnit":{"$ref":"151"},"destinationKey":"%value","guid":"fd7c4cb3-bb05-4382-867f-87ef410fee9a","$type":"Bolt.ValueConnection"},{"sourceUnit":{"$ref":"38"},"sourceKey":"value","destinationUnit":{"$ref":"21"},"destinationKey":"a","guid":"459955f0-53b2-41ff-9587-d8ab41a55ef7","$type":"Bolt.ValueConnection"},{"sourceUnit":{"$ref":"156"},"sourceKey":"isGrounded","destinationUnit":{"$ref":"137"},"destinationKey":"input","guid":"d0218c21-19a6-4f3a-92e9-bdca386d46b5","$type":"Bolt.ValueConnection"},{"sourceUnit":{"$ref":"225"},"sourceKey":"value","destinationUnit":{"$ref":"256"},"destinationKey":"target","guid":"463f8794-062a-417b-805a-8750ea32870a","$type":"Bolt.ValueConnection"},{"sourceUnit":{"$ref":"21"},"sourceKey":"comparison","destinationUnit":{"$ref":"18"},"destinationKey":"input","guid":"593e0962-a4fa-4201-a8ce-52a635e5dd16","$type":"Bolt.ValueConnection"},{"sourceUnit":{"$ref":"47"},"sourceKey":"result","destinationUnit":{"$ref":"223"},"destinationKey":"a","guid":"06bbe944-fd5a-4da1-95d0-3ddeae6cede9","$type":"Bolt.ValueConnection"},{"sourceUnit":{"$ref":"127"},"sourceKey":"value","destinationUnit":{"$ref":"15"},"destinationKey":"%rotation","guid":"99ff9698-0310-4710-b86a-817e3a3f36bf","$type":"Bolt.ValueConnection"},{"sourceUnit":{"$ref":"228"},"sourceKey":"comparison","destinationUnit":{"$ref":"141"},"destinationKey":"condition","guid":"7f8bca69-308b-4a98-97e5-11eb4fd59c5c","$type":"Bolt.ValueConnection"},{"sourceUnit":{"$ref":"253"},"sourceKey":"result","destinationUnit":{"$ref":"122"},"destinationKey":"input","guid":"384405a4-34a9-49ae-959f-723f58db122b","$type":"Bolt.ValueConnection"},{"sourceUnit":{"$ref":"154"},"sourceKey":"value","destinationUnit":{"$ref":"27"},"destinationKey":"%y","guid":"c02e2abc-88e5-4f86-829c-c791cae3724c","$type":"Bolt.ValueConnection"},{"sourceUnit":{"$ref":"246"},"sourceKey":"result","destinationUnit":{"$ref":"146"},"destinationKey":"input","guid":"d2f91d10-c612-45da-aa79-a9d0f1b548e0","$type":"Bolt.ValueConnection"},{"sourceUnit":{"$ref":"221"},"sourceKey":"output","destinationUnit":{"$ref":"223"},"destinationKey":"b","guid":"b41a6326-db84-4805-8914-13e59b326880","$type":"Bolt.ValueConnection"},{"sourceUnit":{"$ref":"235"},"sourceKey":"result","destinationUnit":{"$ref":"249"},"destinationKey":"a","guid":"13536a61-a76f-422a-98b9-afd553e25062","$type":"Bolt.ValueConnection"},{"sourceUnit":{"$ref":"143"},"sourceKey":"value","destinationUnit":{"$ref":"27"},"destinationKey":"%x","guid":"afec5117-3bc6-4164-a338-fe055d59cf2d","$type":"Bolt.ValueConnection"},{"sourceUnit":{"$ref":"223"},"sourceKey":"notEqual","destinationUnit":{"$ref":"251"},"destinationKey":"condition","guid":"d429dbc1-8e47-40b3-b00a-cbdef12357d1","$type":"Bolt.ValueConnection"},{"sourceUnit":{"$ref":"244"},"sourceKey":"value","destinationUnit":{"$ref":"249"},"destinationKey":"b","guid":"03154051-7c74-479b-b0e0-834b851f83c7","$type":"Bolt.ValueConnection"},{"sourceUnit":{"$ref":"25"},"sourceKey":"value","destinationUnit":{"$ref":"18"},"destinationKey":"target","guid":"3ecbc988-d03b-4499-821c-29c0eaf1cd59","$type":"Bolt.ValueConnection"},{"sourceUnit":{"$ref":"53"},"sourceKey":"isGrounded","destinationUnit":{"$ref":"139"},"destinationKey":"condition","guid":"a0b43b42-386d-4fae-a3ce-ec9b78e8862b","$type":"Bolt.ValueConnection"},{"sourceUnit":{"$ref":"241"},"sourceKey":"value","destinationUnit":{"$ref":"50"},"destinationKey":"target","guid":"1f3ea531-8fb0-43dd-8c7f-4bd2981af4c5","$type":"Bolt.ValueConnection"},{"sourceUnit":{"$ref":"32"},"sourceKey":"value","destinationUnit":{"$ref":"15"},"destinationKey":"%position","guid":"444757be-27e9-4cbd-8d85-5600d964bd53","$type":"Bolt.ValueConnection"},{"sourceUnit":{"$ref":"249"},"sourceKey":"product","destinationUnit":{"$ref":"253"},"destinationKey":"%x","guid":"2f992905-6249-416a-b462-9b617a9e7f86","$type":"Bolt.ValueConnection"},{"sourceUnit":{"$ref":"256"},"sourceKey":"value","destinationUnit":{"$ref":"253"},"destinationKey":"%y","guid":"ad8e6901-e2b3-41e4-8e1a-165d22b0de92","$type":"Bolt.ValueConnection"},{"sourceUnit":{"$ref":"50"},"sourceKey":"value","destinationUnit":{"$ref":"228"},"destinationKey":"a","guid":"0516918a-49fa-4f0f-b081-46a56ab8bc19","$type":"Bolt.ValueConnection"},{"sourceUnit":{"$ref":"238"},"sourceKey":"value","destinationUnit":{"$ref":"143"},"destinationKey":"target","guid":"4546acad-3e0c-41b6-89d1-c6b14956b630","$type":"Bolt.ValueConnection"},{"sourceUnit":{"$ref":"45"},"sourceKey":"output","destinationUnit":{"$ref":"120"},"destinationKey":"input","guid":"e98c5ceb-deb7-44c5-9079-cde148038de7","$type":"Bolt.ValueConnection"},{"sourceUnit":{"$ref":"132"},"sourceKey":"value","destinationUnit":{"$ref":"118"},"destinationKey":"condition","guid":"f44d3918-72b3-4e00-858f-c85ffd0159c2","$type":"Bolt.ValueConnection"},{"sourceUnit":{"$ref":"130"},"sourceKey":"output","destinationUnit":{"$ref":"30"},"destinationKey":"input","guid":"965f353a-df50-4b94-aa84-9f60d6035b74","$type":"Bolt.ValueConnection"},{"sourceUnit":{"$ref":"223"},"sourceKey":"notEqual","destinationUnit":{"$ref":"148"},"destinationKey":"%value","guid":"bcd3a1b3-aa92-4e01-83cc-64fc8cbce31f","$type":"Bolt.ValueConnection"},{"sourceUnit":{"$ref":"27"},"sourceKey":"result","destinationUnit":{"$ref":"232"},"destinationKey":"input","guid":"57d8add1-1246-42e7-aae1-306aa968dac9","$type":"Bolt.ValueConnection"},{"position":{"xMin":2986.0,"yMin":-11.0,"xMax":3749.0,"yMax":591.0},"label":"SpriteRenderer
      Look LeftRight","comment":null,"color":{"r":1.0,"g":0.454902,"b":0.0,"a":1.0},"guid":"3c3a314d-317b-4493-9a7b-9b6a964710da","$version":"A","$type":"Ludiq.GraphGroup"},{"position":{"xMin":2197.0,"yMin":-9.0,"xMax":2913.0,"yMax":593.0},"label":"Animator
      isJumping","comment":null,"color":{"r":1.0,"g":0.4526977,"b":0.0,"a":1.0},"guid":"c578ac2c-bf5c-40e9-bd17-9d2a1501f7dc","$version":"A","$type":"Ludiq.GraphGroup"},{"position":{"xMin":1115.0,"yMin":-7.0,"xMax":2144.0,"yMax":592.0},"label":"
      Animator isWalking","comment":null,"color":{"r":1.0,"g":0.454902,"b":0.0,"a":1.0},"guid":"70da18df-3055-486d-949f-4c637ca0892b","$version":"A","$type":"Ludiq.GraphGroup"},{"position":{"xMin":-739.0,"yMin":632.0,"xMax":2054.0,"yMax":1255.0},"label":"Jumping","comment":null,"color":{"r":0.3484614,"g":0.6509434,"b":0.09518512,"a":1.0},"guid":"be36bc85-2b66-4e9f-b2e4-c9d78e787a9a","$version":"A","$type":"Ludiq.GraphGroup"},{"position":{"xMin":-94.0,"yMin":21.0,"xMax":1069.0,"yMax":593.0},"label":"Movement","comment":null,"color":{"r":0.3490196,"g":0.6509804,"b":0.09411765,"a":1.0},"guid":"6002b34d-7eb2-4b1b-afdb-042fb0409e5d","$version":"A","$type":"Ludiq.GraphGroup"},{"position":{"xMin":2082.0,"yMin":631.0,"xMax":3822.0,"yMax":1257.0},"label":"Player
      Fall Dead","comment":null,"color":{"r":0.5377358,"g":0.3069153,"b":0.3069153,"a":1.0},"guid":"8bcb654c-2e5f-42e3-b406-bdd5bbd2c249","$version":"A","$type":"Ludiq.GraphGroup"}],"$version":"A"}}'
    _objectReferences:
    - {fileID: 4958618907276550663, guid: ba79e2162c275b047b012a7a5f9bb628, type: 3}
    - {fileID: 11400000, guid: 0f36daf5f2055de4da40c5152732b210, type: 2}
    - {fileID: 8300000, guid: 3f2ba3ea13d42af46a7d57a0a63988ee, type: 3}
    - {fileID: 11400000, guid: 0f36daf5f2055de4da40c5152732b210, type: 2}
    - {fileID: 8300000, guid: f7c36d3f94c983f44a60425e2272da55, type: 3}
