%YAML 1.1
%TAG !u! tag:unity3d.com,2011:
--- !u!114 &-2019326997613083589
MonoBehaviour:
  m_ObjectHideFlags: 11
  m_CorrespondingSourceObject: {fileID: 0}
  m_PrefabInstance: {fileID: 0}
  m_PrefabAsset: {fileID: 0}
  m_GameObject: {fileID: 0}
  m_Enabled: 1
  m_EditorHideFlags: 0
  m_Script: {fileID: 11500000, guid: d0353a89b1f911e48b9e16bdc9f2e058, type: 3}
  m_Name: 
  m_EditorClassIdentifier: 
  version: 4
--- !u!21 &2100000
Material:
  serializedVersion: 6
  m_ObjectHideFlags: 0
  m_CorrespondingSourceObject: {fileID: 0}
  m_PrefabInstance: {fileID: 0}
  m_PrefabAsset: {fileID: 0}
  m_Name: Ground
  m_Shader: {fileID: 4800000, guid: 650dd9526735d5b46b79224bc6e94025, type: 3}
  m_ShaderKeywords: _EMISSION
  m_LightmapFlags: 2
  m_EnableInstancingVariants: 0
  m_DoubleSidedGI: 0
  m_CustomRenderQueue: 2000
  stringTagMap:
    RenderType: Opaque
  disabledShaderPasses:
  - DistortionVectors
  - TransparentDepthPrepass
  - TransparentDepthPostpass
  - TransparentBackface
  - MOTIONVECTORS
  m_SavedProperties:
    serializedVersion: 3
    m_TexEnvs:
    - Texture2D_C69EB180:
        m_Texture: {fileID: 2800000, guid: e5c37ab0c7b37af4f981195d3caaf4b4, type: 3}
        m_Scale: {x: 1, y: 1}
        m_Offset: {x: 0, y: 0}
    - _AlphaTex:
        m_Texture: {fileID: 0}
        m_Scale: {x: 1, y: 1}
        m_Offset: {x: 0, y: 0}
    - _AnisotropyMap:
        m_Texture: {fileID: 0}
        m_Scale: {x: 1, y: 1}
        m_Offset: {x: 0, y: 0}
    - _BaseColorMap:
        m_Texture: {fileID: 0}
        m_Scale: {x: 1, y: 1}
        m_Offset: {x: 0, y: 0}
    - _BaseMap:
        m_Texture: {fileID: 0}
        m_Scale: {x: 1, y: 1}
        m_Offset: {x: 0, y: 0}
    - _BentNormalMap:
        m_Texture: {fileID: 0}
        m_Scale: {x: 1, y: 1}
        m_Offset: {x: 0, y: 0}
    - _BentNormalMapOS:
        m_Texture: {fileID: 0}
        m_Scale: {x: 1, y: 1}
        m_Offset: {x: 0, y: 0}
    - _BumpMap:
        m_Texture: {fileID: 0}
        m_Scale: {x: 1, y: 1}
        m_Offset: {x: 0, y: 0}
    - _CoatMaskMap:
        m_Texture: {fileID: 0}
        m_Scale: {x: 1, y: 1}
        m_Offset: {x: 0, y: 0}
    - _DetailAlbedoMap:
        m_Texture: {fileID: 0}
        m_Scale: {x: 1, y: 1}
        m_Offset: {x: 0, y: 0}
    - _DetailMap:
        m_Texture: {fileID: 0}
        m_Scale: {x: 1, y: 1}
        m_Offset: {x: 0, y: 0}
    - _DetailMask:
        m_Texture: {fileID: 0}
        m_Scale: {x: 1, y: 1}
        m_Offset: {x: 0, y: 0}
    - _DetailNormalMap:
        m_Texture: {fileID: 0}
        m_Scale: {x: 1, y: 1}
        m_Offset: {x: 0, y: 0}
    - _DistortionVectorMap:
        m_Texture: {fileID: 0}
        m_Scale: {x: 1, y: 1}
        m_Offset: {x: 0, y: 0}
    - _EmissionMap:
        m_Texture: {fileID: 0}
        m_Scale: {x: 1, y: 1}
        m_Offset: {x: 0, y: 0}
    - _EmissiveColorMap:
        m_Texture: {fileID: 0}
        m_Scale: {x: 1, y: 1}
        m_Offset: {x: 0, y: 0}
    - _HeightMap:
        m_Texture: {fileID: 0}
        m_Scale: {x: 1, y: 1}
        m_Offset: {x: 0, y: 0}
    - _IridescenceMaskMap:
        m_Texture: {fileID: 0}
        m_Scale: {x: 1, y: 1}
        m_Offset: {x: 0, y: 0}
    - _IridescenceThicknessMap:
        m_Texture: {fileID: 0}
        m_Scale: {x: 1, y: 1}
        m_Offset: {x: 0, y: 0}
    - _MainTex:
        m_Texture: {fileID: 0}
        m_Scale: {x: 1, y: 1}
        m_Offset: {x: 0, y: 0}
    - _MaskMap:
        m_Texture: {fileID: 0}
        m_Scale: {x: 1, y: 1}
        m_Offset: {x: 0, y: 0}
    - _MaskTex:
        m_Texture: {fileID: 0}
        m_Scale: {x: 1, y: 1}
        m_Offset: {x: 0, y: 0}
    - _MetallicGlossMap:
        m_Texture: {fileID: 0}
        m_Scale: {x: 1, y: 1}
        m_Offset: {x: 0, y: 0}
    - _NormalMap:
        m_Texture: {fileID: 0}
        m_Scale: {x: 1, y: 1}
        m_Offset: {x: 0, y: 0}
    - _NormalMapOS:
        m_Texture: {fileID: 0}
        m_Scale: {x: 1, y: 1}
        m_Offset: {x: 0, y: 0}
    - _OcclusionMap:
        m_Texture: {fileID: 0}
        m_Scale: {x: 1, y: 1}
        m_Offset: {x: 0, y: 0}
    - _ParallaxMap:
        m_Texture: {fileID: 0}
        m_Scale: {x: 1, y: 1}
        m_Offset: {x: 0, y: 0}
    - _SampleTexture2D_3ec74a86d8c1488d8ce597f8156fb7ab_Texture_1:
        m_Texture: {fileID: 2800000, guid: 2de0d72a6700bd94ea57111b29e246fc, type: 3}
        m_Scale: {x: 1, y: 1}
        m_Offset: {x: 0, y: 0}
    - _SampleTexture2D_ae061cbc8301d686a4cbfc6826975296_Texture_1:
        m_Texture: {fileID: 2800000, guid: ca084ebab0cef7c4ba746cdb442f9c1e, type: 3}
        m_Scale: {x: 1, y: 1}
        m_Offset: {x: 0, y: 0}
    - _SampleTexture2D_aef34a082e463b8992e5f66de0345979_Texture_1:
        m_Texture: {fileID: 2800000, guid: ac80c335ebd6dde4fa54a82050064545, type: 3}
        m_Scale: {x: 1, y: 1}
        m_Offset: {x: 0, y: 0}
    - _SampleTexture2D_e60950bba990008885c246fd6823bc78_Texture_1:
        m_Texture: {fileID: 2800000, guid: 5e98de278b2ccc14f89b76b85596a3f3, type: 3}
        m_Scale: {x: 1, y: 1}
        m_Offset: {x: 0, y: 0}
    - _SpecGlossMap:
        m_Texture: {fileID: 0}
        m_Scale: {x: 1, y: 1}
        m_Offset: {x: 0, y: 0}
    - _SpecularColorMap:
        m_Texture: {fileID: 0}
        m_Scale: {x: 1, y: 1}
        m_Offset: {x: 0, y: 0}
    - _SubsurfaceMaskMap:
        m_Texture: {fileID: 0}
        m_Scale: {x: 1, y: 1}
        m_Offset: {x: 0, y: 0}
    - _TangentMap:
        m_Texture: {fileID: 0}
        m_Scale: {x: 1, y: 1}
        m_Offset: {x: 0, y: 0}
    - _TangentMapOS:
        m_Texture: {fileID: 0}
        m_Scale: {x: 1, y: 1}
        m_Offset: {x: 0, y: 0}
    - _ThicknessMap:
        m_Texture: {fileID: 0}
        m_Scale: {x: 1, y: 1}
        m_Offset: {x: 0, y: 0}
    - _TransmittanceColorMap:
        m_Texture: {fileID: 0}
        m_Scale: {x: 1, y: 1}
        m_Offset: {x: 0, y: 0}
    - unity_Lightmaps:
        m_Texture: {fileID: 0}
        m_Scale: {x: 1, y: 1}
        m_Offset: {x: 0, y: 0}
    - unity_LightmapsInd:
        m_Texture: {fileID: 0}
        m_Scale: {x: 1, y: 1}
        m_Offset: {x: 0, y: 0}
    - unity_ShadowMasks:
        m_Texture: {fileID: 0}
        m_Scale: {x: 1, y: 1}
        m_Offset: {x: 0, y: 0}
    m_Floats:
    - PixelSnap: 0
    - Vector1_2EE2CB80: 0.1
    - _AORemapMax: 1
    - _AORemapMin: 0
    - _ATDistance: 1
    - _AlbedoAffectEmissive: 0
    - _AlphaClip: 0
    - _AlphaCutoff: 0.5
    - _AlphaCutoffEnable: 0
    - _AlphaCutoffPostpass: 0.5
    - _AlphaCutoffPrepass: 0.5
    - _AlphaCutoffShadow: 0.5
    - _Anisotropy: 0
    - _Blend: 0
    - _BlendMode: 0
    - _BlendOp: 0
    - _BumpScale: 1
    - _CameraFadingEnabled: 0
    - _CameraFarFadeDistance: 2
    - _CameraNearFadeDistance: 1
    - _ClearCoatMask: 0
    - _ClearCoatSmoothness: 0
    - _CoatMask: 0
    - _ColorMode: 0
    - _Cull: 2
    - _CullMode: 2
    - _CullModeForward: 2
    - _Cutoff: 0.5
    - _DepthOffsetEnable: 0
    - _DetailAlbedoMapScale: 1
    - _DetailAlbedoScale: 1
    - _DetailNormalMapScale: 1
    - _DetailNormalScale: 1
    - _DetailSmoothnessScale: 1
    - _DiffusionProfile: 0
    - _DiffusionProfileHash: 0
    - _DisplacementLockObjectScale: 1
    - _DisplacementLockTilingScale: 1
    - _DisplacementMode: 0
    - _DistortionBlend: 0.5
    - _DistortionBlendMode: 0
    - _DistortionBlurBlendMode: 0
    - _DistortionBlurDstBlend: 1
    - _DistortionBlurRemapMax: 1
    - _DistortionBlurRemapMin: 0
    - _DistortionBlurScale: 1
    - _DistortionBlurSrcBlend: 1
    - _DistortionDepthTest: 1
    - _DistortionDstBlend: 1
    - _DistortionEnable: 0
    - _DistortionEnabled: 0
    - _DistortionScale: 1
    - _DistortionSrcBlend: 1
    - _DistortionStrength: 1
    - _DistortionStrengthScaled: 0
    - _DistortionVectorBias: -1
    - _DistortionVectorScale: 2
    - _DoubleSidedEnable: 0
    - _DoubleSidedNormalMode: 1
    - _Drag: 1
    - _DstBlend: 0
    - _EmissionEnabled: 0
    - _EmissiveColorMode: 1
    - _EmissiveExposureWeight: 1
    - _EmissiveIntensity: 1
    - _EmissiveIntensityUnit: 0
    - _EnableBlendModePreserveSpecularLighting: 1
    - _EnableExternalAlpha: 0
    - _EnableFogOnTransparent: 1
    - _EnableGeometricSpecularAA: 0
    - _EnableMotionVectorForVertexAnimation: 0
    - _EnableSpecularOcclusion: 0
    - _EnableWind: 0
    - _EnergyConservingSpecularColor: 1
    - _EnvironmentReflections: 1
    - _FlipbookBlending: 0
    - _FlipbookMode: 0
    - _GlossMapScale: 1
    - _Glossiness: 0.5
    - _GlossinessSource: 0
    - _GlossyReflections: 1
    - _HdrpVersion: 1
    - _HeightAmplitude: 0.02
    - _HeightCenter: 0.5
    - _HeightMapParametrization: 0
    - _HeightMax: 1
    - _HeightMin: -1
    - _HeightOffset: 0
    - _HeightPoMAmplitude: 2
    - _HeightTessAmplitude: 2
    - _HeightTessCenter: 0.5
    - _InitialBend: 1
    - _InvTilingScale: 1
    - _Ior: 1
    - _IridescenceMask: 1
    - _IridescenceThickness: 1
    - _LightingEnabled: 1
    - _LinkDetailsWithBase: 1
    - _MaterialID: 1
    - _Metallic: 0
    - _Mode: 0
    - _NormalMapSpace: 0
    - _NormalScale: 1
    - _OcclusionStrength: 1
    - _PPDLodThreshold: 5
    - _PPDMaxSamples: 15
    - _PPDMinSamples: 5
    - _PPDPrimitiveLength: 1
    - _PPDPrimitiveWidth: 1
    - _Parallax: 0.02
    - _PreRefractionPass: 0
    - _QueueOffset: 0
    - _ReceiveShadows: 1
    - _ReceivesSSR: 1
    - _RefractionModel: 0
    - _SSRefractionProjectionModel: 0
    - _SampleGI: 0
    - _Shininess: 0
    - _ShiverDirectionality: 0.5
    - _ShiverDrag: 0.2
    - _Smoothness: 0
    - _SmoothnessRemapMax: 1
    - _SmoothnessRemapMin: 0
    - _SmoothnessSource: 0
    - _SmoothnessTextureChannel: 0
    - _SoftParticlesEnabled: 0
    - _SoftParticlesFarFadeDistance: 1
    - _SoftParticlesNearFadeDistance: 0
    - _SpecSource: 0
    - _SpecularAAScreenSpaceVariance: 0.1
    - _SpecularAAThreshold: 0.2
    - _SpecularHighlights: 1
    - _SrcBlend: 1
    - _StencilRef: 2
    - _StencilRefDepth: 0
    - _StencilRefGBuffer: 2
    - _StencilRefMV: 128
    - _StencilWriteMask: 7
    - _StencilWriteMaskDepth: 32
    - _StencilWriteMaskGBuffer: 3
    - _StencilWriteMaskMV: 128
    - _Stiffness: 1
    - _SubsurfaceMask: 1
    - _SupportDBuffer: 1
    - _SupportDecals: 1
    - _Surface: 0
    - _SurfaceType: 0
    - _TexWorldScale: 1
    - _TexWorldScaleEmissive: 1
    - _Thickness: 1
    - _ThicknessMultiplier: 1
    - _TransmissionEnable: 1
    - _TransparentBackfaceEnable: 0
    - _TransparentDepthPostpassEnable: 0
    - _TransparentDepthPrepassEnable: 0
    - _TransparentSortPriority: 0
    - _TransparentWritingVelocity: 0
    - _UVBase: 0
    - _UVDetail: 0
    - _UVEmissive: 0
    - _UVSec: 0
    - _UseAoMap: 0
    - _UseColorMap: 0
    - _UseEmissiveIntensity: 0
    - _UseEmissiveMap: 0
    - _UseMetallicMap: 0
    - _UseNormalMap: 0
    - _UseRoughnessMap: 0
    - _UseShadowThreshold: 0
    - _WorkflowMode: 1
    - _ZTestDepthEqualForOpaque: 3
    - _ZTestGBuffer: 4
    - _ZTestModeDistortion: 4
    - _ZWrite: 1
    m_Colors:
    - Color_23C9B10D: {r: 0.04561229, g: 0.14495295, b: 0.38679245, a: 0}
    - Color_A2AAE5B5: {r: 0.11372546, g: 0.62745106, b: 0.8352941, a: 0}
    - Vector2_C848BFFB: {r: 0.25, g: 0.25, b: 0, a: 0}
    - _BaseColor: {r: 0.161, g: 0.1265, b: 0.09583333, a: 1}
    - _BaseColorAddSubDiff: {r: 0, g: 0, b: 0, a: 0}
    - _BaseColorMap_MipInfo: {r: 0, g: 0, b: 0, a: 0}
    - _CameraFadeParams: {r: 0, g: Infinity, b: 0, a: 0}
    - _Color: {r: 0.16099995, g: 0.12649995, b: 0.09583331, a: 1}
    - _DiffusionProfileAsset: {r: 0, g: 0, b: 0, a: 0}
    - _DoubleSidedConstants: {r: 1, g: 1, b: -1, a: 0}
    - _EmissionColor: {r: 1, g: 1, b: 1, a: 1}
    - _EmissiveColor: {r: 0, g: 0, b: 0, a: 1}
    - _EmissiveColorLDR: {r: 0, g: 0, b: 0, a: 1}
    - _Flip: {r: 1, g: 1, b: 1, a: 1}
    - _InvPrimScale: {r: 1, g: 1, b: 0, a: 0}
    - _IridescenceThicknessRemap: {r: 0, g: 1, b: 0, a: 0}
    - _RendererColor: {r: 1, g: 1, b: 1, a: 1}
    - _SoftParticleFadeParams: {r: 0, g: 0, b: 0, a: 0}
    - _SpecColor: {r: 0.19999996, g: 0.19999996, b: 0.19999996, a: 1}
    - _SpecularColor: {r: 1, g: 1, b: 1, a: 1}
    - _ThicknessRemap: {r: 0, g: 1, b: 0, a: 0}
    - _TransmittanceColor: {r: 1, g: 1, b: 1, a: 1}
    - _UVDetailsMappingMask: {r: 1, g: 0, b: 0, a: 0}
    - _UVMappingMask: {r: 1, g: 0, b: 0, a: 0}
    - _UVMappingMaskEmissive: {r: 1, g: 0, b: 0, a: 0}
    - _UvOffset: {r: 0, g: 0, b: 0, a: 0}
    - _UvTiling: {r: 1, g: 1, b: 0, a: 0}
  m_BuildTextureStacks: []
